<?xml version="1.0" ?>
<sdf version="1.4">
  <world name="default">
    <include>
      <uri>model://ground_plane</uri>
    </include>
    <include>
      <uri>model://sun</uri>
    </include>

      <!-- <light type="directional" name="some_light">
        <diffuse>0.7 0.7 0.7 0</diffuse>
        <specular>1 1 1 0</specular>
        <direction>-1 -1 -1</direction>
    </light> -->

  </world>
</sdf>
