<?xml version="1.0" ?>
<robot name="gosciu" xmlns:xacro="http://www.ros.org/wiki/xacro">

  <material name="blue">
    <color rgba="0 0 1.0 1.0"/>
  </material>
  <material name="red">
    <color rgba="1.0 0 0 1.0"/>
  </material>
  <material name="green">
    <color rgba="0 1.0 0 1.0"/>
  </material>

  <link name="link_base">
    <!-- <inertial> -->
      <!-- <mass value="2"/> -->
      <!-- <origin rpy="0 0 0" xyz="0.08 0.14 0.48"/> -->
      <!-- <origin rpy="0 0 0" xyz="0 0 0.048"/> -->
      <!-- <inertia ixx="0.005933" ixy="0" ixz="0" iyy="0.01733" iyz="0" izz="0.014733"/> -->
    <!-- </inertial> -->
    <!-- body -->
    <collision name="collision_base">
      <origin rpy="0 0 0" xyz="0 0 0.045"/>
      <geometry>
        <box size="0.16 0.28 0.09"/>
      </geometry>
    </collision>
    <visual name="visual_base">
      <origin rpy="0 0 0" xyz="0 0 0.045"/>
      <geometry>
        <box size="0.16 0.28 0.09"/>
      </geometry>
      <material name="red"/>
    </visual>
    <!-- stage 0 -->
    <collision name="collision_stage_0">
      <origin rpy="0 0 0" xyz="0 0 0.11"/>
      <geometry>
        <box size="0.04 0.04 0.04"/>
      </geometry>
    </collision>
    <visual name="visual_stage_0">
      <origin rpy="0 0 0" xyz="0 0 0.11"/>
      <geometry>
        <box size="0.04 0.04 0.04"/>
      </geometry>
      <material name="red"/>
    </visual>
  </link>

<!-- STAGE 1 -->
  <link name="link_stage_1">
    <inertial>
      <mass value="0.05"/>
      <origin rpy="0 0 0" xyz="0 0 0"/>
      <inertia ixx="0.000007577" ixy="0" ixz="0" iyy="0.000008533" iyz="0" izz="0.000007577"/>
    </inertial>

    <collision name="collision_stage_1">
    <origin rpy="0 0 0" xyz="0 0 0.0175"/>
      <geometry>
        <box size="0.03 0.03 0.035"/>
      </geometry>
    </collision>
    <visual name="visual_stage_1">
      <origin rpy="0 0 0" xyz="0 0 0.0175"/>
      <geometry>
        <box size="0.03 0.03 0.035"/>
      </geometry>
      <material name="blue"/>
    </visual>
  </link>

  <joint name="joint_1" type="revolute">
    <parent link="link_base"/>
    <child link="link_stage_1"/>
    <origin xyz="0 0 0.13"/>
    <axis xyz="0 0 1"/>
    <!-- vel limit around 50  duuno about effort-->
    <limit lower="-1.74533" upper="1.74533" effort="0.87" velocity="0.87"/> 
  </joint>



<!-- STAGE 2 -->
  <link name="link_stage_2">
    <inertial>
      <mass value="0.15"/>
      <origin rpy="0 0 0" xyz="0 0 0"/>
      <inertia ixx="0.0002003" ixy="0" ixz="0" iyy="0.0000100" iyz="0" izz="0.0002003"/>
    </inertial>

    <collision name="collision_stage_2">
    <origin rpy="0 0 0" xyz="0 0 0.0625"/>
      <geometry>
        <box size="0.02 0.02 0.125"/>
      </geometry>
    </collision>
    <visual name="visual_stage_2">
      <origin rpy="0 0 0" xyz="0 0 0.0625"/>
      <geometry>
        <box size="0.02 0.02 0.125"/>
      </geometry>
      <material name="red"/>
    </visual>
  </link>

  <joint name="joint_2" type="revolute">
    <parent link="link_stage_1"/>
    <child link="link_stage_2"/>
    <origin xyz="0 0 0.035"/>
    <axis xyz="0 1 0"/>
    <!-- vel limit around 50  duuno about effort-->
    <limit lower="-1.74533" upper="1.74533" effort="0.87" velocity="0.87"/> 
  </joint>



<!-- STAGE 3 -->
  <link name="link_stage_3">
    <inertial>
      <mass value="0.05"/>
      <origin rpy="0 0 0" xyz="0 0 0"/>
      <inertia ixx="0.000007577" ixy="0" ixz="0" iyy="0.000008533" iyz="0" izz="0.000007577"/>
    </inertial>

    <collision name="collision_stage_3">
    <origin rpy="0 0 0" xyz="0 0 0.0175"/>
      <geometry>
        <box size="0.03 0.03 0.035"/>
      </geometry>
    </collision>
    <visual name="visual_stage_3">
      <origin rpy="0 0 0" xyz="0 0 0.0175"/>
      <geometry>
        <box size="0.03 0.03 0.035"/>
      </geometry>
      <material name="blue"/>
    </visual>
  </link>

  <joint name="joint_3" type="revolute">
    <parent link="link_stage_2"/>
    <child link="link_stage_3"/>
    <origin xyz="0 0 0.125"/>
    <axis xyz="0 0 1"/>
    <!-- vel limit around 50  duuno about effort-->
    <limit lower="-1.74533" upper="1.74533" effort="0.87" velocity="0.87"/> 
  </joint>


  <!-- STAGE 4 -->
  <link name="link_stage_4">
    <inertial>
      <mass value="0.05"/>
      <origin rpy="0 0 0" xyz="0 0 0"/>
      <inertia ixx="0.000007577" ixy="0" ixz="0" iyy="0.000008533" iyz="0" izz="0.000007577"/>
    </inertial>

    <collision name="collision_stage_4">
    <origin rpy="0 0 0" xyz="0 0 0.0075"/>
      <geometry>
        <box size="0.03 0.03 0.015"/>
      </geometry>
    </collision>
    <visual name="visual_stage_4">
      <origin rpy="0 0 0" xyz="0 0 0.0075"/>
      <geometry>
        <box size="0.03 0.03 0.015"/>
      </geometry>
      <material name="red"/>
    </visual>
  </link>

  <joint name="joint_4" type="revolute">
    <parent link="link_stage_3"/>
    <child link="link_stage_4"/>
    <origin xyz="0 0 0.035"/>
    <axis xyz="1 0 0"/>
    <!-- vel limit around 50  duuno about effort-->
    <limit lower="-1.74533" upper="1.74533" effort="0.87" velocity="0.87"/> 
  </joint>

  <!-- EFFECTOR-->
  <link name="link_effector">
    <collision name="collision_effector">
      <origin rpy="0 0 0" xyz="0.03 0 0.005"/>
      <geometry>
        <box size="0.06 0.01 0.01"/>
      </geometry>
    </collision>
    <visual name="visual_effector">
      <origin rpy="0 0 0" xyz="0.03 0 0.005"/>
      <geometry>
        <box size="0.06 0.01 0.01"/>
      </geometry>
      <material name="green"/>
    </visual>
  </link>

  <joint name="joint_fixed_1" type="fixed">
    <parent link="link_stage_4"/>
    <child link="link_effector"/>
    <origin xyz="0 0 0.015"/>
  </joint>


</robot>

